{
    "swagger": "2.0",
    "info": {
        "version": "1.0.0"
    },
    "host": "jungle-scout-server.localtunnel.me",
    "basePath": "/api",
    "schemes": [
        "https"
    ],
    "produces": [
        "application/json"
    ],
    "paths": {
        "/search": {
            "get": {
                "tags": [
                    "Search Text"
                ],
                "summary": "Search by places using opencagedata service",
                "responses": {
                    "200": {
                        "description": "OK"
                    },
                    "400": {
                        "description": "Bad request"
                    }
                },
                "content": {
                    "application/json": {}
                },
                "parameters": [
                    {
                        "name": "k",
                        "in": "query",
                        "description": "Specifies the query string",
                        "required": true,
                        "type": "string"
                    },
                    {
                        "name": "page",
                        "in": "query",
                        "description": "Specifies the page number",
                        "required": false,
                        "type": "number"
                    }
                ]
            }
        }
    }
}